{
  "type": "object",
  "properties": {
    "id": {
      "type": "integer"
    },
    "company_id": {
      "type": "integer"
    },
    "owner_id": {
      "type": "integer"
    },
    "name": {
      "type": ["null", "string"]
    },
    "open_deals_count": {
      "type": ["null", "integer"]
    },
    "related_open_deals_count": {
      "type": ["null", "integer"]
    },
    "closed_deals_count": {
      "type": ["null", "integer"]
    },
    "related_closed_deals_count": {
      "type": ["null", "integer"]
    },
    "email_messages_count": {
      "type": ["null", "integer"]
    },
    "people_count": {
      "type": ["null", "integer"]
    },
    "activities_count": {
      "type": ["null", "integer"]
    },
    "done_activities_count": {
      "type": ["null", "integer"]
    },
    "undone_activities_count": {
      "type": ["null", "integer"]
    },
    "reference_activities_count": {
      "type": ["null", "integer"]
    },
    "files_count": {
      "type": ["null", "integer"]
    },
    "notes_count": {
      "type": ["null", "integer"]
    },
    "followers_count": {
      "type": ["null", "integer"]
    },
    "won_deals_count": {
      "type": ["null", "integer"]
    },
    "related_won_deals_count": {
      "type": ["null", "integer"]
    },
    "lost_deals_count": {
      "type": ["null", "integer"]
    },
    "related_lost_deals_count": {
      "type": ["null", "integer"]
    },
    "active_flag": {
      "type": ["null", "boolean"]
    },
    "category_id": {
      "type": ["null", "integer"]
    },
    "picture_id": {
      "type": ["null", "integer"]
    },
    "country_code": {
      "type": ["null", "string"]
    },
    "first_char": {
      "type": ["null", "string"]
    },
    "update_time": {
      "type": ["null", "string"],
      "format": "date-time"
    },
    "add_time": {
      "type": ["null", "string"],
      "format": "date-time"
    },
    "visible_to": {
      "type": ["null", "string"]
    },
    "next_activity_date": {
      "type": ["null", "string"]
    },
    "next_activity_time": {
      "type": ["null", "string"]
    },
    "next_activity_id": {
      "type": ["integer", "null"]
    },
    "last_activity_id": {
      "type": ["integer", "null"]
    },
    "last_activity_date": {
      "type": ["null", "string"]
    },
    "timeline_last_activity_time": {
      "type": ["null", "string"],
      "format": "date-time"
    },
    "timeline_last_activity_time_by_owner": {
      "type": ["null", "string"],
      "format": "date-time"
    },
    "address": {
      "type": ["null", "string"]
    },
    "address_subpremise": {
      "type": ["null", "string"]
    },
    "address_street_number": {
      "type": ["null", "string"]
    },
    "address_route": {
      "type": ["null", "string"]
    },
    "address_sublocality": {
      "type": ["null", "string"]
    },
    "address_locality": {
      "type": ["null", "string"]
    },
    "address_admin_area_level_1": {
      "type": ["null", "string"]
    },
    "address_admin_area_level_2": {
      "type": ["null", "string"]
    },
    "address_country": {
      "type": ["null", "string"]
    },
    "address_postal_code": {
      "type": ["null", "string"]
    },
    "address_formatted_address": {
      "type": ["null", "string"]
    },
    "cc_email": {
      "type": ["null", "string"]
    },
    "owner_name": {
      "type": ["null", "string"]
    }, 
    "48375c51685be7a6e339b402d1e1388875e90651": {
      "type": ["null", "string"]
    }
  }
}
